…
``` r
cv_df = 
  crossv_mc(nonlin_df, 100)
```

What is happening here…

Resampling objects: draws from sample repeatedly in random way

``` r
cv_df %>% pull(train) %>% .[[1]] %>% as_tibble()
```

    ## # A tibble: 79 x 3
    ##       id     x      y
    ##    <int> <dbl>  <dbl>
    ##  1     1 0.586  0.416
    ##  2     2 0.398  0.993
    ##  3     3 0.938 -3.03 
    ##  4     4 0.841 -2.04 
    ##  5     5 0.371  1.20 
    ##  6     7 0.908 -2.51 
    ##  7     9 0.389  0.833
    ##  8    10 0.461  0.872
    ##  9    12 0.141  0.720
    ## 10    13 0.304  0.689
    ## # … with 69 more rows

``` r
cv_df %>% pull(test) %>% .[[1]] %>% as_tibble()
```

    ## # A tibble: 21 x 3
    ##       id     x      y
    ##    <int> <dbl>  <dbl>
    ##  1     6 0.131  0.473
    ##  2     8 0.265  1.38 
    ##  3    11 0.521 -0.373
    ##  4    15 0.678 -0.210
    ##  5    28 0.531  1.16 
    ##  6    29 0.672 -0.664
    ##  7    42 0.322  0.699
    ##  8    51 0.922 -2.51 
    ##  9    52 0.357  0.593
    ## 10    58 0.212  1.62 
    ## # … with 11 more rows
…
What do these results say about model choices?

``` r
cv_df %>% 
  select(starts_with("rmse")) %>% 
  pivot_longer(
    everything(),
    names_to = "model",
    values_to = "rmse",
    names_prefix = "rmse_"
  )
```

    ## # A tibble: 300 x 2
    ##    model   rmse
    ##    <chr>  <dbl>
    ##  1 linear 0.722
    ##  2 smooth 0.386
    ##  3 wiggly 0.436
    ##  4 linear 0.645
    ##  5 smooth 0.299
    ##  6 wiggly 0.404
    ##  7 linear 0.772
    ##  8 smooth 0.342
    ##  9 wiggly 0.451
    ## 10 linear 0.765
    ## # … with 290 more rows
…
