…
Now, Brooklyn is being compared to Manhattan, Bronx to Manhattan etc.
This doesn’t change model intrinsically, just changes what you see and
how it works

## Diagnostics

``` r
modelr::add_residuals(nyc_airbnb, price_fit)
```

    ## # A tibble: 40,492 x 6
    ##    price stars borough neighborhood room_type        resid
    ##    <dbl> <dbl> <fct>   <chr>        <fct>            <dbl>
    ##  1    99   5   Bronx   City Island  Private room      9.47
    ##  2   200  NA   Bronx   City Island  Private room     NA   
    ##  3   300  NA   Bronx   City Island  Entire home/apt  NA   
    ##  4   125   5   Bronx   City Island  Entire home/apt  35.5 
    ##  5    69   5   Bronx   City Island  Private room    -20.5 
    ##  6   125   5   Bronx   City Island  Entire home/apt  35.5 
    ##  7    85   5   Bronx   City Island  Entire home/apt  -4.53
    ##  8    39   4.5 Bronx   Allerton     Private room    -34.5 
    ##  9    95   5   Bronx   Allerton     Entire home/apt   5.47
    ## 10   125   4.5 Bronx   Allerton     Entire home/apt  51.5 
    ## # … with 40,482 more rows
…
Shows what the effect of stars and roomtype is in each Borough. Going
from entire apartment to private room saves $50 in Bronx and $120 in
Manhattan.

Let’s nest even more…. fit linear model for each neighborhood in
Manhattan.

``` r
nyc_airbnb %>% 
  filter(borough == "Manhattan") %>% 
  nest(data = -neighborhood)
```

    ## # A tibble: 32 x 2
    ##    neighborhood       data                
    ##    <chr>              <list>              
    ##  1 Battery Park City  <tibble [65 × 4]>   
    ##  2 Chinatown          <tibble [360 × 4]>  
    ##  3 Chelsea            <tibble [1,072 × 4]>
    ##  4 Civic Center       <tibble [42 × 4]>   
    ##  5 East Harlem        <tibble [1,048 × 4]>
    ##  6 East Village       <tibble [1,858 × 4]>
    ##  7 Financial District <tibble [391 × 4]>  
    ##  8 Flatiron District  <tibble [90 × 4]>   
    ##  9 Gramercy           <tibble [307 × 4]>  
    ## 10 Greenwich Village  <tibble [383 × 4]>  
    ## # … with 22 more rows
``` r
## For each of the 32 neighborhoods in manhattan, fit a linear model of price as related to stars and room type.

nyc_airbnb %>% 
  filter(borough == "Manhattan") %>% 
  nest(data = -neighborhood) %>% 
  mutate(
    models = map(.x = data, ~lm(price ~ stars + room_type, data = .x)),
    results = map(models, broom::tidy)
  ) %>% 
  select(-data, -models) %>% 
  unnest(results)
```

    ## # A tibble: 123 x 6
    ##    neighborhood      term                  estimate std.error statistic  p.value
    ##    <chr>             <chr>                    <dbl>     <dbl>     <dbl>    <dbl>
    ##  1 Battery Park City (Intercept)             -119.      366.     -0.324 7.48e- 1
    ##  2 Battery Park City stars                     74.0      74.2     0.997 3.27e- 1
    ##  3 Battery Park City room_typePrivate room   -126.       27.6    -4.56  8.11e- 5
    ##  4 Battery Park City room_typeShared room    -160.       56.3    -2.84  7.96e- 3
    ##  5 Chinatown         (Intercept)              337.       60.4     5.59  5.66e- 8
    ##  6 Chinatown         stars                    -27.8      13.0    -2.14  3.34e- 2
    ##  7 Chinatown         room_typePrivate room   -109.       11.5    -9.52  1.03e-18
    ##  8 Chinatown         room_typeShared room    -143.       93.2    -1.54  1.25e- 1
    ##  9 Chelsea           (Intercept)              477.      135.      3.53  4.38e- 4
    ## 10 Chelsea           stars                    -44.5      27.3    -1.63  1.04e- 1
    ## # … with 113 more rows
…
